com\FitnessCenter\entity\GymMemberEntity.class
com\FitnessCenter\service\CommonMsgService.class
com\FitnessCenter\model\FileResponseDto.class
com\FitnessCenter\controller\GymMemberController.class
com\FitnessCenter\entity\GymTrainerEntity.class
com\FitnessCenter\repository\GymTrainerRepository.class
com\FitnessCenter\service\GymTrainerRegistorService.class
com\FitnessCenter\App.class
com\FitnessCenter\model\GymMemberDto.class
com\FitnessCenter\controller\GymTrainerController.class
com\FitnessCenter\service\GymMemberRegistorSevice.class
com\FitnessCenter\repository\FileUploadRepository.class
com\FitnessCenter\repository\GymMemberRepository.class
com\FitnessCenter\model\GymTrainerDto.class
com\FitnessCenter\entity\FileUploadEntity.class
com\FitnessCenter\model\MsgDto.class
