C:\Users\rohan\Downloads\FitnessCenter\src\main\java\com\FitnessCenter\App.java
C:\Users\rohan\Downloads\FitnessCenter\src\main\java\com\FitnessCenter\model\GymTrainerDto.java
C:\Users\rohan\Downloads\FitnessCenter\src\main\java\com\FitnessCenter\repository\FileUploadRepository.java
C:\Users\rohan\Downloads\FitnessCenter\src\main\java\com\FitnessCenter\service\CommonMsgService.java
C:\Users\rohan\Downloads\FitnessCenter\src\main\java\com\FitnessCenter\entity\GymTrainerEntity.java
C:\Users\rohan\Downloads\FitnessCenter\src\main\java\com\FitnessCenter\entity\GymMemberEntity.java
C:\Users\rohan\Downloads\FitnessCenter\src\main\java\com\FitnessCenter\entity\FileUploadEntity.java
C:\Users\rohan\Downloads\FitnessCenter\src\main\java\com\FitnessCenter\service\GymTrainerRegistorService.java
C:\Users\rohan\Downloads\FitnessCenter\src\main\java\com\FitnessCenter\model\GymMemberDto.java
C:\Users\rohan\Downloads\FitnessCenter\src\main\java\com\FitnessCenter\service\GymMemberRegistorSevice.java
C:\Users\rohan\Downloads\FitnessCenter\src\main\java\com\FitnessCenter\repository\GymMemberRepository.java
C:\Users\rohan\Downloads\FitnessCenter\src\main\java\com\FitnessCenter\controller\GymTrainerController.java
C:\Users\rohan\Downloads\FitnessCenter\src\main\java\com\FitnessCenter\model\MsgDto.java
C:\Users\rohan\Downloads\FitnessCenter\src\main\java\com\FitnessCenter\repository\GymTrainerRepository.java
C:\Users\rohan\Downloads\FitnessCenter\src\main\java\com\FitnessCenter\controller\GymMemberController.java
C:\Users\rohan\Downloads\FitnessCenter\src\main\java\com\FitnessCenter\model\FileResponseDto.java
